<?xml version="1.0" encoding="utf-8"?>
<!-- Generator: Adobe Illustrator 20.1.0, SVG Export Plug-In . SVG Version: 6.00 Build 0)  -->
<svg version="1.1" id="Layer_1" xmlns="http://www.w3.org/2000/svg" xmlns:xlink="http://www.w3.org/1999/xlink" x="0px" y="0px"
	 viewBox="0 0 100 100" style="enable-background:new 0 0 100 100;" xml:space="preserve">
<style type="text/css">
	.st0{fill:#4C3D65;}
	.st1{fill:#FFFFFF;}
</style>
<circle class="st0" cx="50" cy="50" r="50"/>
<g>
	<g>
		<path class="st1" d="M49.8,52c0.1,0,0.1,0,0.2,0c0,0,0,0,0.1,0h0.1c3.1-0.1,5.5-1.1,7.3-3.2c4-4.5,3.3-12.2,3.2-12.9
			c-0.3-5.5-2.9-8.2-5-9.4c-1.6-0.9-3.5-1.4-5.5-1.4H50l0,0h-0.1c-1.2,0-3.4,0.2-5.5,1.4c-2.2,1.2-4.9,3.9-5.1,9.5
			c-0.1,0.8-0.8,8.4,3.2,12.9C44.3,50.9,46.7,51.9,49.8,52z M42,36.1C42,36,42.1,36,42,36.1c0.3-7.5,5.6-8.3,7.9-8.3l0,0H50
			c2.8,0.1,7.6,1.2,7.9,8.3v0.1c0,0.1,0.8,7.2-2.6,10.8c-1.3,1.4-3.1,2.2-5.4,2.2c0,0,0,0-0.1,0l0,0c0,0,0,0-0.1,0
			c-2.3,0-4-0.8-5.4-2.2C41.3,43.3,42,36.1,42,36.1z"/>
		<path class="st1" d="M71.3,64.7L71.3,64.7c0-0.1,0-0.2,0-0.3c-0.1-2-0.2-6.8-4.7-8.3h-0.1c-4.7-1.2-8.6-3.9-8.6-3.9
			c-0.6-0.4-1.5-0.3-2,0.3c-0.4,0.6-0.3,1.5,0.3,2c0.2,0.1,4.3,3,9.5,4.3c2.4,0.9,2.7,3.4,2.7,5.8c0,0.1,0,0.2,0,0.3
			c0,0.9-0.1,2.4-0.3,3.2c-1.7,0.9-8.3,4.3-18.3,4.3c-10,0-16.6-3.3-18.3-4.3c-0.2-0.9-0.3-2.3-0.3-3.2c0-0.1,0-0.2,0-0.3
			c0.1-2.4,0.3-4.9,2.7-5.8c5.2-1.4,9.3-4.2,9.5-4.3c0.6-0.4,0.8-1.3,0.3-2c-0.4-0.6-1.3-0.8-2-0.3c0,0-3.9,2.7-8.6,3.9h-0.1
			c-4.5,1.5-4.6,6.3-4.7,8.3c0,0.1,0,0.2,0,0.3l0,0c0,0.5,0,3.3,0.5,4.7c0.1,0.3,0.3,0.5,0.5,0.7c0.3,0.2,7.8,4.9,20.3,4.9
			s19.9-4.8,20.3-4.9c0.3-0.2,0.4-0.4,0.5-0.7C71.3,68.1,71.3,65.3,71.3,64.7z"/>
	</g>
</g>
</svg>
