<?xml version="1.0" encoding="utf-8"?>
<!-- Generator: Adobe Illustrator 22.1.0, SVG Export Plug-In . SVG Version: 6.00 Build 0)  -->
<svg version="1.1" id="Layer_1" xmlns="http://www.w3.org/2000/svg" xmlns:xlink="http://www.w3.org/1999/xlink" x="0px" y="0px"
	 viewBox="0 0 7.29 14" style="enable-background:new 0 0 7.29 14;" xml:space="preserve">
<style type="text/css">
	.st0{fill:#FFFFFF;}
</style>
<g id="Icon" transform="translate(-122.611)">
	<path id="Path_28" class="st0" d="M129.8,8.523c-0.0587-0.2088-0.1412-0.4101-0.246-0.6c-0.1102-0.1879-0.25-0.3567-0.414-0.5
		c-0.153-0.1404-0.3146-0.271-0.484-0.391c-0.1885-0.1246-0.3856-0.2356-0.59-0.332c-0.25-0.1227-0.448-0.214-0.594-0.274
		c-0.146-0.06-0.357-0.142-0.633-0.246c-0.2447-0.094-0.427-0.1657-0.547-0.215s-0.2777-0.1197-0.473-0.211
		c-0.1527-0.0673-0.299-0.1483-0.437-0.242c-0.1079-0.0799-0.2111-0.166-0.309-0.258c-0.1008-0.0889-0.1798-0.1998-0.231-0.324
		c-0.1713-0.4567-0.0056-0.9711,0.4-1.242c0.358-0.2372,0.782-0.3548,1.211-0.336c0.2256,0.0009,0.4502,0.0311,0.668,0.09
		c0.1995,0.0494,0.3943,0.1163,0.582,0.2c0.1575,0.0734,0.3102,0.1569,0.457,0.25c0.1433,0.0913,0.2433,0.1603,0.3,0.207
		c0.06,0.047,0.1,0.078,0.113,0.094c0.0581,0.0498,0.136,0.0701,0.211,0.055c0.0785-0.0052,0.1477-0.0533,0.18-0.125l0.633-1.141
		c0.0657-0.0952,0.0489-0.2247-0.039-0.3c-0.031-0.031-0.07-0.068-0.117-0.109s-0.148-0.117-0.3-0.227
		c-0.1589-0.1103-0.3261-0.2083-0.5-0.293c-0.22-0.1037-0.4473-0.1913-0.68-0.262c-0.2808-0.0892-0.57-0.1495-0.863-0.18V0.25
		c0.0056-0.1324-0.0971-0.2444-0.2296-0.25c-0.0068-0.0003-0.0136-0.0003-0.0204,0H125.8c-0.0664-0.0007-0.1301,0.0261-0.176,0.074
		c-0.0479,0.0459-0.0747,0.1096-0.074,0.176v1.406c-0.7598,0.1242-1.4591,0.4903-1.994,1.044
		c-0.4954,0.5042-0.7708,1.1842-0.766,1.891c-0.0011,0.2048,0.0211,0.4091,0.066,0.609c0.0394,0.1778,0.0943,0.3518,0.164,0.52
		c0.0708,0.1631,0.164,0.3156,0.277,0.453c0.1065,0.1336,0.22,0.2614,0.34,0.383c0.1283,0.1239,0.2683,0.2351,0.418,0.332
		c0.172,0.1147,0.319,0.207,0.441,0.277s0.2847,0.1507,0.488,0.242c0.2,0.0913,0.3603,0.1603,0.481,0.207l0.481,0.2
		c0.2813,0.1093,0.4897,0.194,0.625,0.254c0.1353,0.06,0.3073,0.1433,0.516,0.25c0.1642,0.0779,0.3177,0.1763,0.457,0.293
		c0.1026,0.0962,0.1908,0.2067,0.262,0.328c0.0765,0.1245,0.117,0.2678,0.117,0.414c0.0161,0.3796-0.166,0.7404-0.481,0.953
		c-0.3266,0.2259-0.716,0.3435-1.113,0.336c-0.1943,0-0.3881-0.0208-0.578-0.062c-0.7088-0.1512-1.3646-0.4884-1.9-0.977
		l-0.016-0.016c-0.0446-0.0561-0.1165-0.083-0.187-0.07c-0.0708,0.0036-0.1366,0.0379-0.18,0.094l-0.8,1.055
		c-0.0785,0.0947-0.0715,0.2336,0.016,0.32c0.026,0.0313,0.0717,0.0783,0.137,0.141c0.1159,0.1038,0.237,0.2016,0.363,0.293
		c0.4148,0.3138,0.8778,0.558,1.371,0.723c0.324,0.1153,0.6591,0.1964,1,0.242v1.365c0.0016,0.1374,0.1126,0.2484,0.25,0.25h1.055
		c0.1324,0.0056,0.2444-0.0971,0.25-0.2296c0.0003-0.0068,0.0003-0.0136,0-0.0204v-1.367c0.7773-0.1081,1.4921-0.4854,2.02-1.066
		c0.5129-0.5616,0.791-1.2985,0.777-2.059C129.9071,9.0091,129.8711,8.7615,129.8,8.523z"/>
</g>
</svg>
