<?xml version="1.0" encoding="utf-8"?>
<!-- Generator: Adobe Illustrator 20.1.0, SVG Export Plug-In . SVG Version: 6.00 Build 0)  -->
<svg version="1.1" id="Layer_1" xmlns="http://www.w3.org/2000/svg" xmlns:xlink="http://www.w3.org/1999/xlink" x="0px" y="0px"
	 viewBox="0 0 100 100" style="enable-background:new 0 0 100 100;" xml:space="preserve">
<style type="text/css">
	.st0{fill:#44B974;}
	.st1{fill:#FFFFFF;}
</style>
<circle class="st0" cx="50" cy="50" r="50"/>
<path class="st1" d="M50.1,77.8c-1.3,0-2.6-0.1-3.9-0.3c-13.3-2.1-22.5-14.7-20.4-28c1-6.5,4.5-12.1,9.8-16
	c4.2-3.1,9.2-4.7,14.4-4.7c0.4,0,0.8,0,1.2,0l1.3,0.1l-4.8-4.5l2-2.1l8.5,8.1l-8.1,8.5l-2.1-2l4.3-4.5l-1.1-0.1c-0.4,0-0.8,0-1.2,0
	c-4.4,0-8.7,1.4-12.3,4c-4.5,3.3-7.5,8.2-8.4,13.7c-1.8,11.5,6.1,22.2,17.5,24.1c1.1,0.2,2.2,0.3,3.3,0.3c4.4,0,8.7-1.4,12.3-4
	c4.5-3.3,7.5-8.2,8.4-13.7c1.2-7.4-1.7-14.9-7.5-19.6l2.1-2.7c6.8,5.5,10.1,14.2,8.8,22.9c-1,6.5-4.5,12.1-9.8,16
	C60.2,76.2,55.2,77.8,50.1,77.8z"/>
<path class="st1" d="M49,65.6v-2.4l-0.4-0.1c-3-0.3-5.1-1.8-6.2-4.1l2.8-1.2c0.8,1.5,2.9,2.6,5.1,2.6c1.1,0,4.5-0.2,4.5-2.9
	c0-1.9-2.6-2.5-4.6-2.7c-3.3-0.4-7.1-0.8-7.1-5.1c0-2.6,2-4.5,5.5-5l0.4-0.1v-2.2h3v2.2l0.4,0.1c1.5,0.3,3.6,0.9,4.8,3.2l-2.5,1.2
	c-0.8-1.1-2.6-1.9-4.3-1.9c-2.6,0-4.2,0.9-4.2,2.5c0,1.9,2.3,2.1,4.2,2.4c3.4,0.4,7.5,0.9,7.5,5.4c0,3.5-3,5.1-5.6,5.4l-0.4,0v2.5
	H49z"/>
</svg>
