{
    "name": "Identifiers",
    "alias": "identifiers",
    "description": "",
    "keywords": [],
    "active": 1,
    "order": 0,
    "providers": [
        "Modules\\Identifiers\\Providers\\IdentifiersServiceProvider"
    ],
    "aliases": {},
    "files": [],
    "requires": []
}
